## Autogenerated by Scribe. DO NOT MODIFY.

name: Email
description: ''
endpoints:
  -
    httpMethods:
      - POST
    uri: api/v3/user/mail/inbox-email-list
    metadata:
      groupName: Email
      groupDescription: ''
      subgroup: ''
      subgroupDescription: ''
      title: 'Inbox Email List'
      description: 'Retrieves a paginated list of emails for the authenticated user, excluding sent emails, and returns the data in JSON format.'
      authenticated: true
      custom: []
    headers:
      Authorization: 'Bearer {YOUR_AUTH_KEY}'
      Content-Type: application/json
      Accept: application/json
    urlParameters: []
    cleanUrlParameters: []
    queryParameters: []
    cleanQueryParameters: []
    bodyParameters: []
    cleanBodyParameters: []
    fileParameters: []
    responses:
      -
        status: 200
        content: |-
          {
             "data": [
                 {
                     "id": 1,
                     "subject": "Sample Email Subject",
                     "body": "Sample email body content",
                     "created_at": "2024-11-07T14:35:06.000000Z",
                     "ownUserMailInfo": {
                         "is_read": false,
                         "is_delete": false
                     }
                 },
                 // additional emails
             ],
             "total": 45,
             "perPage": 15,
             "currentPage": 1,
             "lastPage": 3
          }
        headers: []
        description: ''
        custom: []
    responseFields: []
    auth:
      - headers
      - Authorization
      - 'Bearer 4EhacbkgZV836veD615daPf'
    controller: null
    method: null
    route: null
    custom: []
